----------------------------------------------------------------------
Ran 17 tests in 0.613s

OK
Name             Stmts   Miss Branch BrPart  Cover   Missing
------------------------------------------------------------
Collatz.py          44      1     14      1    97%   39, 38->39
TestCollatz.py      77      0      0      0   100%
------------------------------------------------------------
TOTAL              121      1     14      1    99%
