1 10 20
100 200 125
201 210 89
900 1000 174
377 503 142
921 456 179
564 295 144
923 98 179
478 28 144
568 131 144
209 353 144
960 53 179
576 838 171
823 128 171
725 879 179
537 348 142
697 662 145
391 498 142
852 8465 262
603 4842 238
5521 7611 262
9578 8974 260
8421 405 262
7660 355 262
7251 1026 262
9486 3585 262
691 476 145
2273 9235 262
582 3872 238
4820 8703 262
5206 1688 238
34 8989 262
19407 51608 324
80085 2687 351
98006 73056 351
80990 92380 333
50609 30999 324
52351 1930 324
50003 98325 351
91013 86516 333
53927 38642 340
54777 73721 335
9953 42607 324
97632 78404 338
29546 27127 272
7319 82052 351
528266 262755 470
296196 545214 470
754821 2372 509
982770 843028 507
614903 151034 470
634818 434999 509
769067 857910 525
25536 82076 351
492746 975552 525
471387 360613 449
255415 601652 470
449124 862593 525
925584 133820 525
718844 262643 509
1 999999 525
3672 231071 443
1157 421266 449
255 39802 324
3601 77227 351
3257 342598 443
2447 40530 324
2306 319011 443
1021 99297 351
425 465876 449
3109 10774 262
12190 5819 268
10090 5190 262
12211 1254 268
12439 11938 263
12019 4879 268
1170 8836 262
13204 9309 268
9893 8025 260
708 211888 383
482 672499 509
689 521018 470
280 858319 525
466 39694 324
150 987753 525
493 313096 443
625 28278 308
348 899167 525
23189 80955 351
731 10451 262
37474 65607 340
59020 75293 335
34863 59169 340
63355 3250 340
5769 39639 324
7968 68723 340
84174 37261 351
35194 60610 340
89870 82824 333
19368 34895 311
28637 64729 340
70472 15361 340
12870 97202 351
50076 60482 340
67166 21369 340
89544 56935 351
57828 74753 335
98410 90372 333
75674 28623 340
5056 19764 279
89068 7387 351
49036 8817 324
56778 40280 340
42385 64741 340
54354 46027 340
56497 53827 322
65807 916 340
