1 10 20
100 200 125
201 210 89
900 1000 174
1 740 171
1 3328 217
1 2076 182
1 9338 262
1 5608 238
1 2096 182
1 1676 182
1 8936 262
1 812 171
1 2239 183
1 5563 238
1 3799 238
1 8629 262
1 8422 262
1 9584 262
1 4571 238
1 2470 209
1 1469 182
1 6740 262
1 6799 262
1 5844 238
1 7924 262
1 9787 262
1 3583 217
1 4344 238
1 5938 238
1 7415 262
1 8180 262
1 4077 238
1 2049 182
1 9052 262
1 8719 262
1 1903 182
1 3705 217
1 9065 262
1 8196 262
1 1332 182
1 6387 262
1 7173 262
1 4385 238
999999 935098 507
999999 924289 507
999999 930098 507
999999 960075 458
999999 975940 440
10419 39046 324
30250 93756 351
67797 32413 340
19686 36454 324
13775 73111 340
43184 27039 324
61948 60974 335
39854 73134 340
24809 20327 282
55175 66235 335
19951 41091 324
53674 71812 335
28861 81470 351
15397 52092 324
26304 18023 282
13041 13963 276
67390 94015 351
31828 63097 340
38563 60986 340
37493 93162 351
24250 75529 340
69912 68603 299
56286 67737 335
37125 81061 351
26731 61629 340
12185 22910 279
36968 76813 340
23559 58019 340
59053 99244 351
40866 87134 351
344864 182906 443
143530 994732 525
832684 723081 468
592940 252454 470
860510 573786 525
813496 933079 525
835472 944894 525
823954 982529 525
809308 972291 525
892122 949191 507
861033 965378 507
873664 981734 507
879858 959274 507
870745 967990 507
806762 926249 525
48956 1 324
30107 1 308
68500 1 340
74719 1 340
40034 1 324
52376 1 324
