...............
----------------------------------------------------------------------
Ran 15 tests in 6.091s

OK
Name             Stmts   Miss Branch BrPart  Cover   Missing
------------------------------------------------------------
Collatz.py          34      0     14      0   100%
TestCollatz.py      69      0      0      0   100%
------------------------------------------------------------
TOTAL              103      0     14      0   100%
