1 1 1
3 3 8
11 110 119
1100 2010 182
21 10 21
900 100 179
5213 5354 192
539 9561 262
7777 187 262
8959 5294 262
5494 6745 262
4137 6577 262
9573 6745 260
9168 5827 262
6587 8744 257
4295 3135 238
7042 9312 260
1594 5200 238
3252 5943 238
3190 1155 217
9475 6355 260
6664 2143 262
1952 8388 262
2472 3087 217
3227 3648 194
3346 3496 181
250 2475 209
8953 7548 252
105 4812 238
4625 9370 262
4132 5997 236
1211 9853 262
1335 3130 217
3671 5019 238
8816 4484 262
7462 9464 260
2957 5942 238
8752 1055 262
1695 1306 180
1066 5696 238
7398 2074 262
4903 7381 262
4496 9673 262
8765 5992 262
8128 9323 260
4810 9171 262
2215 6013 238
3371 6613 262
5536 9945 262
7131 1986 262
3401 7380 262
1296 3641 217
6483 3057 262
538 5257 238
3289 1267 217
2919 5715 238
8695 4166 262
3637 4163 238
3002 5211 238
3167 6224 262
3917 4286 202
9743 2871 262
8934 1373 262
1213 8868 262
1694 3837 238
6449 403 262
7199 809 262
2244 5622 238
4898 5017 210
5076 6846 262
9325 6635 260
4593 166 238
6882 5846 262
1642 1060 182
7978 7256 252
5341 6168 236
5618 9900 262
3834 5384 215
8716 2819 262
2570 773 209
7625 8153 252
9334 5651 262
4819 8619 262
5186 5292 192
1450 5282 238
2957 4676 238
9830 9222 260
4342 3248 238
3216 5235 238
8480 6081 262
6851 6528 244
4201 8818 262
576 1116 179
2806 7900 262
5772 7273 262
4079 3780 189
6274 5886 262
7252 1010 262
1964 8321 262
7974 3672 262
7841 5752 262
6592 6068 262
6478 5093 262
1249 2205 180
5032 7916 262
1543 4169 238
3473 6452 262
9081 5157 262
3014 2061 217
2206 9491 262
8954 4775 262
6294 7888 257
8589 4582 262
5351 6951 262
8538 3272 262
4957 4966 135
9932 8480 260
1775 1099 182
6050 5570 218
8392 6728 257
2898 3122 217
1226 5733 238
9241 1774 262
748 9520 262
8515 7647 252
9505 9793 198
