1 10 20
100 200 125
201 210 89
900 1000 174
1716 8772 262
2857 25198 282
13345 8735 276
3530 27477 308
29531 28667 272
1251 12424 268
17571 18427 279
10886 11168 268
27922 1701 308
5232 4426 210
11050 18382 279
10938 22993 279
8034 5367 262
55 29685 308
14296 25349 282
2871 28791 308
19583 12374 279
2290 217 183
10337 23988 282
14691 3344 276
29669 1439 308
3040 21861 279
4659 4137 215
25890 29708 308
696 9562 262
29857 14112 308
18790 15628 279
8695 15378 276
27455 1205 308
25192 9998 282
11255 17095 276
26264 15826 282
6779 26912 308
19953 20931 256
17272 18508 279
26521 10331 282
412 13050 268
29260 25208 308
21174 16802 279
14234 22441 279
17647 20918 279
26099 21846 282
19547 29167 308
27313 15930 308
17060 21905 279
13747 12273 276
16714 1044 276
27766 24713 308
21151 5947 279
23784 26876 308
2707 29939 308
15955 21564 279
8582 5575 262
10975 11041 193
18161 12819 279
28965 2402 308
23695 14968 282
12703 18782 279
25518 11014 282
535 6196 262
19209 2889 279
27250 20589 308
11912 421 268
29366 11532 308
7509 13295 276
17433 16418 266
23714 27004 308
29792 1958 308
20933 9428 279
16213 25041 282
20644 23603 282
7648 17832 279
15854 5820 276
5039 17577 276
14566 12406 276
24631 15116 282
1447 333 182
4415 14954 276
6331 689 262
8401 26178 282
11536 22445 279
8911 14231 276
20784 13775 279
12 3560 217
20238 2052 279
16723 11635 276
23169 2910 279
2717 14196 276
29409 281 308
26075 17558 282
12369 2408 268
17911 22748 274
20811 13246 279
955 10567 262
8603 15484 276
1083 24603 282
18403 10972 279
13569 11416 276
780 20943 279
20844 5370 279
28963 13732 308
